     1                                            ORG 100H
     2                                            
     3                                  start:
     4 00000000 B080                              mov al, 10000000b
     5 00000002 E600                    loop:     out 0, al
     6 00000004 D0C8                              ror al,1
     7                                            
     8 00000006 B9FFFF                            mov cx, 0ffffh
     9 00000009 E2FE                    warte:    loop warte
    10                                  
    11 0000000B EBF5                              jmp loop
